EESchema Schematic File Version 4
EELAYER 30 0
EELAYER END
$Descr A4 11693 8268
encoding utf-8
Sheet 6 6
Title ""
Date "21 mar 2011"
Rev ""
Comp ""
Comment1 ""
Comment2 ""
Comment3 ""
Comment4 ""
$EndDescr
Wire Wire Line
	9500 5150 9500 5350
Wire Wire Line
	8000 5150 8000 5350
Wire Wire Line
	7200 5150 7200 5350
Wire Wire Line
	4250 3000 5050 3000
Wire Wire Line
	4150 5350 4950 5350
Connection ~ 3550 5350
Wire Wire Line
	3650 5350 3550 5350
Connection ~ 5150 5100
Connection ~ 5150 4700
Connection ~ 2200 4700
Connection ~ 2550 5650
Wire Wire Line
	3750 4700 3900 4700
Wire Wire Line
	2200 4550 2200 4700
Wire Wire Line
	2200 5100 3900 5100
Wire Wire Line
	5000 5100 5000 6600
Wire Wire Line
	5000 6600 3550 6600
Wire Wire Line
	2800 5600 2800 5000
Connection ~ 3050 6600
Wire Wire Line
	3050 6050 3050 6600
Connection ~ 3550 6600
Wire Wire Line
	5150 5100 5150 5250
Connection ~ 3900 5100
Wire Wire Line
	5150 4500 5150 4700
Connection ~ 2800 6600
Connection ~ 2550 6600
Wire Wire Line
	2550 6050 2550 6600
Wire Wire Line
	2300 5650 2550 5650
Wire Wire Line
	5850 2600 5850 2300
Connection ~ 5850 3000
Wire Wire Line
	5850 3000 5850 3150
Connection ~ 7300 2600
Connection ~ 6800 2600
Connection ~ 6050 2600
Connection ~ 6550 3000
Connection ~ 7050 3000
Connection ~ 6050 3000
Connection ~ 5850 2300
Connection ~ 5050 2600
Wire Wire Line
	4600 2300 5850 2300
Connection ~ 4250 2600
Wire Wire Line
	4350 2600 4250 2600
Connection ~ 3900 2750
Wire Wire Line
	3900 2850 3900 2750
Wire Wire Line
	3900 3350 3900 3450
Wire Wire Line
	2200 3300 2200 3450
Connection ~ 3050 2000
Wire Wire Line
	2900 2000 3050 2000
Connection ~ 3900 2350
Wire Wire Line
	3900 2450 3900 2350
Wire Wire Line
	3050 1950 3050 2000
Wire Wire Line
	2200 2400 2200 2000
Wire Wire Line
	2200 1750 3900 1750
Wire Wire Line
	2400 2000 2200 2000
Connection ~ 2200 2000
Wire Wire Line
	2200 2900 2200 2700
Wire Wire Line
	3050 3050 3050 3150
Wire Wire Line
	3900 2750 4100 2750
Wire Wire Line
	4100 2750 4100 2300
Connection ~ 5350 2600
Connection ~ 5050 3000
Connection ~ 5350 3000
Connection ~ 6300 3000
Connection ~ 6800 3000
Connection ~ 7300 3000
Connection ~ 6300 2600
Connection ~ 6550 2600
Connection ~ 7050 2600
Connection ~ 5850 2600
Wire Wire Line
	2300 6600 2300 6150
Wire Wire Line
	2800 6100 2800 6200
Connection ~ 3900 4700
Wire Wire Line
	5150 4700 4950 4700
Connection ~ 4800 4700
Connection ~ 4800 5100
Connection ~ 5000 5100
Connection ~ 4950 4700
Wire Wire Line
	3050 5650 3050 5000
Wire Wire Line
	2550 5650 2550 5000
Wire Wire Line
	3300 5000 3300 6600
Connection ~ 3300 6600
Wire Wire Line
	2200 4700 2350 4700
Wire Wire Line
	3550 5450 3550 5350
Wire Wire Line
	3550 5950 3550 6600
Wire Wire Line
	4950 5350 4950 4700
Connection ~ 7550 2600
Connection ~ 7550 3000
Wire Wire Line
	7800 2600 7550 2600
Wire Wire Line
	7600 5150 7600 5350
Wire Wire Line
	8400 5150 8400 5350
$Comp
L doorctrl-v4-rescue:GND #PWR073
U 1 1 4D879ADC
P 9500 5350
F 0 "#PWR073" H 9500 5350 30  0001 C CNN
F 1 "GND" H 9500 5280 30  0001 C CNN
F 2 "" H 9500 5350 50  0001 C CNN
F 3 "" H 9500 5350 50  0001 C CNN
	1    9500 5350
	1    0    0    -1  
$EndComp
$Comp
L mounting:MOUNTING H5
U 1 1 4D879AD2
P 9500 5000
F 0 "H5" H 9500 5250 60  0000 C CNN
F 1 "MOUNTING" H 9500 5150 60  0000 C CNN
F 2 "" H 9500 5000 50  0001 C CNN
F 3 "" H 9500 5000 50  0001 C CNN
	1    9500 5000
	0    -1   -1   0   
$EndComp
Text Notes 6750 4650 0    60   ~ 0
3mm mounting holes at the corners of the board
$Comp
L doorctrl-v4-rescue:GND #PWR074
U 1 1 4D87999F
P 8400 5350
F 0 "#PWR074" H 8400 5350 30  0001 C CNN
F 1 "GND" H 8400 5280 30  0001 C CNN
F 2 "" H 8400 5350 50  0001 C CNN
F 3 "" H 8400 5350 50  0001 C CNN
	1    8400 5350
	1    0    0    -1  
$EndComp
$Comp
L doorctrl-v4-rescue:GND #PWR075
U 1 1 4D87999A
P 8000 5350
F 0 "#PWR075" H 8000 5350 30  0001 C CNN
F 1 "GND" H 8000 5280 30  0001 C CNN
F 2 "" H 8000 5350 50  0001 C CNN
F 3 "" H 8000 5350 50  0001 C CNN
	1    8000 5350
	1    0    0    -1  
$EndComp
$Comp
L doorctrl-v4-rescue:GND #PWR076
U 1 1 4D879997
P 7600 5350
F 0 "#PWR076" H 7600 5350 30  0001 C CNN
F 1 "GND" H 7600 5280 30  0001 C CNN
F 2 "" H 7600 5350 50  0001 C CNN
F 3 "" H 7600 5350 50  0001 C CNN
	1    7600 5350
	1    0    0    -1  
$EndComp
$Comp
L doorctrl-v4-rescue:GND #PWR077
U 1 1 4D879990
P 7200 5350
F 0 "#PWR077" H 7200 5350 30  0001 C CNN
F 1 "GND" H 7200 5280 30  0001 C CNN
F 2 "" H 7200 5350 50  0001 C CNN
F 3 "" H 7200 5350 50  0001 C CNN
	1    7200 5350
	1    0    0    -1  
$EndComp
$Comp
L mounting:MOUNTING H4
U 1 1 4D879985
P 8400 5000
F 0 "H4" H 8400 5250 60  0000 C CNN
F 1 "MOUNTING" H 8400 5150 60  0000 C CNN
F 2 "" H 8400 5000 50  0001 C CNN
F 3 "" H 8400 5000 50  0001 C CNN
	1    8400 5000
	0    -1   -1   0   
$EndComp
$Comp
L mounting:MOUNTING H3
U 1 1 4D87997E
P 8000 5000
F 0 "H3" H 8000 5250 60  0000 C CNN
F 1 "MOUNTING" H 8000 5150 60  0000 C CNN
F 2 "" H 8000 5000 50  0001 C CNN
F 3 "" H 8000 5000 50  0001 C CNN
	1    8000 5000
	0    -1   -1   0   
$EndComp
$Comp
L mounting:MOUNTING H2
U 1 1 4D879975
P 7600 5000
F 0 "H2" H 7600 5250 60  0000 C CNN
F 1 "MOUNTING" H 7600 5150 60  0000 C CNN
F 2 "" H 7600 5000 50  0001 C CNN
F 3 "" H 7600 5000 50  0001 C CNN
	1    7600 5000
	0    -1   -1   0   
$EndComp
$Comp
L mounting:MOUNTING H1
U 1 1 4D87996B
P 7200 5000
F 0 "H1" H 7200 5250 60  0000 C CNN
F 1 "MOUNTING" H 7200 5150 60  0000 C CNN
F 2 "" H 7200 5000 50  0001 C CNN
F 3 "" H 7200 5000 50  0001 C CNN
	1    7200 5000
	0    -1   -1   0   
$EndComp
Text Notes 6350 2500 0    60   ~ 0
Distributed decoupling caps
$Comp
L doorctrl-v4-rescue:C C46
U 1 1 4D139CE9
P 7800 2800
F 0 "C46" H 7850 2900 50  0000 L CNN
F 1 "100nF" H 7750 2550 50  0000 L CNN
F 2 "" H 7800 2800 50  0001 C CNN
F 3 "" H 7800 2800 50  0001 C CNN
	1    7800 2800
	1    0    0    -1  
$EndComp
$Comp
L doorctrl-v4-rescue:C C45
U 1 1 4D139CE3
P 7550 2800
F 0 "C45" H 7600 2900 50  0000 L CNN
F 1 "100nF" H 7500 2550 50  0000 L CNN
F 2 "" H 7550 2800 50  0001 C CNN
F 3 "" H 7550 2800 50  0001 C CNN
	1    7550 2800
	1    0    0    -1  
$EndComp
$Comp
L doorctrl-v4-rescue:+5V #PWR078
U 1 1 4D0BB423
P 5850 2200
F 0 "#PWR078" H 5850 2290 20  0001 C CNN
F 1 "+5V" H 5850 2290 30  0000 C CNN
F 2 "" H 5850 2200 50  0001 C CNN
F 3 "" H 5850 2200 50  0001 C CNN
	1    5850 2200
	1    0    0    -1  
$EndComp
$Comp
L l4960:L4960 U3
U 1 1 4D04D789
P 3050 4700
F 0 "U3" H 3000 4950 50  0000 L BNN
F 1 "L4960" H 2900 4700 50  0000 L BNN
F 2 "l4960-HEPTAWATT" H 3050 4800 50  0001 C CNN
F 3 "" H 3050 4700 50  0001 C CNN
	1    3050 4700
	1    0    0    -1  
$EndComp
$Comp
L doorctrl-v4-rescue:R R29
U 1 1 4D04D9A5
P 3900 5350
F 0 "R29" V 3980 5350 50  0000 C CNN
F 1 "6k2" V 3900 5350 50  0000 C CNN
F 2 "" H 3900 5350 50  0001 C CNN
F 3 "" H 3900 5350 50  0001 C CNN
	1    3900 5350
	0    1    1    0   
$EndComp
$Comp
L doorctrl-v4-rescue:R R30
U 1 1 4D04D99F
P 3550 5700
F 0 "R30" V 3630 5700 50  0000 C CNN
F 1 "4k7" V 3550 5700 50  0000 C CNN
F 2 "" H 3550 5700 50  0001 C CNN
F 3 "" H 3550 5700 50  0001 C CNN
	1    3550 5700
	1    0    0    -1  
$EndComp
$Comp
L doorctrl-v4-rescue:GND #PWR079
U 1 1 4D04D8EB
P 5150 5250
F 0 "#PWR079" H 5150 5250 30  0001 C CNN
F 1 "GND" H 5150 5180 30  0001 C CNN
F 2 "" H 5150 5250 50  0001 C CNN
F 3 "" H 5150 5250 50  0001 C CNN
	1    5150 5250
	1    0    0    -1  
$EndComp
$Comp
L doorctrl-v4-rescue:+12V #PWR080
U 1 1 4D04D8CC
P 5150 4500
AR Path="/4D04D8CC" Ref="#PWR080"  Part="1" 
AR Path="/4CFD3054/4D04D8CC" Ref="#PWR080"  Part="1" 
F 0 "#PWR080" H 5150 4450 20  0001 C CNN
F 1 "+12V" H 5150 4600 30  0000 C CNN
F 2 "" H 5150 4500 50  0001 C CNN
F 3 "" H 5150 4500 50  0001 C CNN
	1    5150 4500
	1    0    0    -1  
$EndComp
$Comp
L doorctrl-v4-rescue:C C16
U 1 1 4D04D8AA
P 5150 4900
F 0 "C16" H 5200 5000 50  0000 L CNN
F 1 "100nF" H 5200 4800 50  0000 L CNN
F 2 "" H 5150 4900 50  0001 C CNN
F 3 "" H 5150 4900 50  0001 C CNN
	1    5150 4900
	1    0    0    -1  
$EndComp
$Comp
L doorctrl-v4-rescue:DIODESCH D2
U 1 1 4D04D88B
P 3900 4900
F 0 "D2" H 3900 5000 40  0000 C CNN
F 1 "SK 54" H 3900 4800 40  0000 C CNN
F 2 "" H 3900 4900 50  0001 C CNN
F 3 "" H 3900 4900 50  0001 C CNN
	1    3900 4900
	0    -1   -1   0   
$EndComp
$Comp
L doorctrl-v4-rescue:INDUCTOR L1
U 1 1 4D04D880
P 4350 4700
F 0 "L1" V 4300 4700 40  0000 C CNN
F 1 "220uH" V 4450 4700 40  0000 C CNN
F 2 "" H 4350 4700 50  0001 C CNN
F 3 "" H 4350 4700 50  0001 C CNN
	1    4350 4700
	0    -1   -1   0   
$EndComp
$Comp
L doorctrl-v4-rescue:R R26
U 1 1 4D04D801
P 2300 5900
F 0 "R26" V 2380 5900 50  0000 C CNN
F 1 "4k7" V 2300 5900 50  0000 C CNN
F 2 "" H 2300 5900 50  0001 C CNN
F 3 "" H 2300 5900 50  0001 C CNN
	1    2300 5900
	1    0    0    -1  
$EndComp
$Comp
L doorctrl-v4-rescue:R R28
U 1 1 4D04D7F1
P 2800 5850
F 0 "R28" V 2850 6100 50  0000 C CNN
F 1 "15k" V 2800 5850 50  0000 C CNN
F 2 "" H 2800 5850 50  0001 C CNN
F 3 "" H 2800 5850 50  0001 C CNN
	1    2800 5850
	1    0    0    -1  
$EndComp
$Comp
L doorctrl-v4-rescue:C C13
U 1 1 4D04D7E8
P 3050 5850
F 0 "C13" V 3100 6000 50  0000 L CNN
F 1 "2.2uF" V 3100 5700 50  0000 L CNN
F 2 "" H 3050 5850 50  0001 C CNN
F 3 "" H 3050 5850 50  0001 C CNN
	1    3050 5850
	1    0    0    -1  
$EndComp
$Comp
L doorctrl-v4-rescue:C C12
U 1 1 4D04D7D1
P 2800 6400
F 0 "C12" V 2850 6550 50  0000 L CNN
F 1 "33nF" V 2700 6550 50  0000 L CNN
F 2 "" H 2800 6400 50  0001 C CNN
F 3 "" H 2800 6400 50  0001 C CNN
	1    2800 6400
	1    0    0    -1  
$EndComp
$Comp
L doorctrl-v4-rescue:C C11
U 1 1 4D04D7C7
P 2550 5850
F 0 "C11" V 2600 6000 50  0000 L CNN
F 1 "2.2nF" V 2600 5700 50  0000 L CNN
F 2 "" H 2550 5850 50  0001 C CNN
F 3 "" H 2550 5850 50  0001 C CNN
	1    2550 5850
	1    0    0    -1  
$EndComp
$Comp
L doorctrl-v4-rescue:+24V #PWR081
U 1 1 4D04D7BB
P 2200 4550
F 0 "#PWR081" H 2200 4500 20  0001 C CNN
F 1 "+24V" H 2200 4650 30  0000 C CNN
F 2 "" H 2200 4550 50  0001 C CNN
F 3 "" H 2200 4550 50  0001 C CNN
	1    2200 4550
	1    0    0    -1  
$EndComp
$Comp
L doorctrl-v4-rescue:CAPAPOL C14
U 1 1 4D04D79B
P 4800 4900
F 0 "C14" H 4650 5000 50  0000 L CNN
F 1 "1000uF/35V" H 4450 4650 50  0000 L CNN
F 2 "" H 4800 4900 50  0001 C CNN
F 3 "" H 4800 4900 50  0001 C CNN
	1    4800 4900
	1    0    0    -1  
$EndComp
$Comp
L doorctrl-v4-rescue:CAPAPOL C10
U 1 1 4D04D797
P 2200 4900
F 0 "C10" H 2050 5000 50  0000 L CNN
F 1 "1000uF/35V" H 1900 4650 50  0000 L CNN
F 2 "" H 2200 4900 50  0001 C CNN
F 3 "" H 2200 4900 50  0001 C CNN
	1    2200 4900
	1    0    0    -1  
$EndComp
$Comp
L doorctrl-v4-rescue:GND #PWR082
U 1 1 4D04D42D
P 5850 3150
F 0 "#PWR082" H 5850 3150 30  0001 C CNN
F 1 "GND" H 5850 3080 30  0001 C CNN
F 2 "" H 5850 3150 50  0001 C CNN
F 3 "" H 5850 3150 50  0001 C CNN
	1    5850 3150
	1    0    0    -1  
$EndComp
$Comp
L doorctrl-v4-rescue:C C25
U 1 1 4D04D39E
P 7300 2800
F 0 "C25" H 7350 2900 50  0000 L CNN
F 1 "100nF" H 7250 2550 50  0000 L CNN
F 2 "" H 7300 2800 50  0001 C CNN
F 3 "" H 7300 2800 50  0001 C CNN
	1    7300 2800
	1    0    0    -1  
$EndComp
$Comp
L doorctrl-v4-rescue:C C24
U 1 1 4D04D39B
P 7050 2800
F 0 "C24" H 7100 2900 50  0000 L CNN
F 1 "100nF" H 7000 2550 50  0000 L CNN
F 2 "" H 7050 2800 50  0001 C CNN
F 3 "" H 7050 2800 50  0001 C CNN
	1    7050 2800
	1    0    0    -1  
$EndComp
$Comp
L doorctrl-v4-rescue:C C23
U 1 1 4D04D398
P 6800 2800
F 0 "C23" H 6850 2900 50  0000 L CNN
F 1 "100nF" H 6750 2550 50  0000 L CNN
F 2 "" H 6800 2800 50  0001 C CNN
F 3 "" H 6800 2800 50  0001 C CNN
	1    6800 2800
	1    0    0    -1  
$EndComp
$Comp
L doorctrl-v4-rescue:C C22
U 1 1 4D04D394
P 6550 2800
F 0 "C22" H 6600 2900 50  0000 L CNN
F 1 "100nF" H 6500 2550 50  0000 L CNN
F 2 "" H 6550 2800 50  0001 C CNN
F 3 "" H 6550 2800 50  0001 C CNN
	1    6550 2800
	1    0    0    -1  
$EndComp
$Comp
L doorctrl-v4-rescue:C C20
U 1 1 4D04D38C
P 6300 2800
F 0 "C20" H 6350 2900 50  0000 L CNN
F 1 "100nF" H 6250 2550 50  0000 L CNN
F 2 "" H 6300 2800 50  0001 C CNN
F 3 "" H 6300 2800 50  0001 C CNN
	1    6300 2800
	1    0    0    -1  
$EndComp
$Comp
L doorctrl-v4-rescue:C C19
U 1 1 4D04D33D
P 6050 2800
F 0 "C19" H 6100 2900 50  0000 L CNN
F 1 "100nF" H 6000 2550 50  0000 L CNN
F 2 "" H 6050 2800 50  0001 C CNN
F 3 "" H 6050 2800 50  0001 C CNN
	1    6050 2800
	1    0    0    -1  
$EndComp
$Comp
L doorctrl-v4-rescue:C C18
U 1 1 4D04D22A
P 5350 2800
F 0 "C18" H 5400 2900 50  0000 L CNN
F 1 "10uF" H 5400 2700 50  0000 L CNN
F 2 "" H 5350 2800 50  0001 C CNN
F 3 "" H 5350 2800 50  0001 C CNN
	1    5350 2800
	1    0    0    -1  
$EndComp
$Comp
L doorctrl-v4-rescue:CAPAPOL C15
U 1 1 4D04D0AE
P 5050 2800
F 0 "C15" H 5100 2900 50  0000 L CNN
F 1 "220uF" H 5100 2700 50  0000 L CNN
F 2 "" H 5050 2800 50  0001 C CNN
F 3 "" H 5050 2800 50  0001 C CNN
	1    5050 2800
	1    0    0    -1  
$EndComp
$Comp
L doorctrl-v4-rescue:INDUCTOR L2
U 1 1 4D04CFE3
P 4650 2600
F 0 "L2" V 4600 2600 40  0000 C CNN
F 1 "330uH" V 4750 2600 40  0000 C CNN
F 2 "" H 4650 2600 50  0001 C CNN
F 3 "" H 4650 2600 50  0001 C CNN
	1    4650 2600
	0    -1   -1   0   
$EndComp
$Comp
L doorctrl-v4-rescue:DIODESCH D3
U 1 1 4D04CF74
P 4250 2800
F 0 "D3" H 4250 2900 40  0000 C CNN
F 1 "SK 54" H 4250 2700 40  0000 C CNN
F 2 "" H 4250 2800 50  0001 C CNN
F 3 "" H 4250 2800 50  0001 C CNN
	1    4250 2800
	0    -1   -1   0   
$EndComp
$Comp
L doorctrl-v4-rescue:C C9
U 1 1 4D04CF13
P 2200 3100
F 0 "C9" H 2250 3200 50  0000 L CNN
F 1 "82pF" H 2250 3000 50  0000 L CNN
F 2 "" H 2200 3100 50  0001 C CNN
F 3 "" H 2200 3100 50  0001 C CNN
	1    2200 3100
	1    0    0    -1  
$EndComp
$Comp
L doorctrl-v4-rescue:GND #PWR083
U 1 1 4D04CF0D
P 2200 3450
F 0 "#PWR083" H 2200 3450 30  0001 C CNN
F 1 "GND" H 2200 3380 30  0001 C CNN
F 2 "" H 2200 3450 50  0001 C CNN
F 3 "" H 2200 3450 50  0001 C CNN
	1    2200 3450
	1    0    0    -1  
$EndComp
$Comp
L doorctrl-v4-rescue:GND #PWR084
U 1 1 4D04CF06
P 3900 3450
F 0 "#PWR084" H 3900 3450 30  0001 C CNN
F 1 "GND" H 3900 3380 30  0001 C CNN
F 2 "" H 3900 3450 50  0001 C CNN
F 3 "" H 3900 3450 50  0001 C CNN
	1    3900 3450
	1    0    0    -1  
$EndComp
$Comp
L doorctrl-v4-rescue:GND #PWR085
U 1 1 4D04CF02
P 3050 3150
F 0 "#PWR085" H 3050 3150 30  0001 C CNN
F 1 "GND" H 3050 3080 30  0001 C CNN
F 2 "" H 3050 3150 50  0001 C CNN
F 3 "" H 3050 3150 50  0001 C CNN
	1    3050 3150
	1    0    0    -1  
$EndComp
$Comp
L doorctrl-v4-rescue:R R32
U 1 1 4D04CED4
P 4350 2300
F 0 "R32" V 4430 2300 50  0000 C CNN
F 1 "3k" V 4350 2300 50  0000 C CNN
F 2 "" H 4350 2300 50  0001 C CNN
F 3 "" H 4350 2300 50  0001 C CNN
	1    4350 2300
	0    1    1    0   
$EndComp
$Comp
L doorctrl-v4-rescue:R R31
U 1 1 4D04CEB9
P 3900 3100
F 0 "R31" V 3980 3100 50  0000 C CNN
F 1 "1k" V 3900 3100 50  0000 C CNN
F 2 "" H 3900 3100 50  0001 C CNN
F 3 "" H 3900 3100 50  0001 C CNN
	1    3900 3100
	1    0    0    -1  
$EndComp
$Comp
L doorctrl-v4-rescue:R R27
U 1 1 4D04CE98
P 2650 2000
F 0 "R27" V 2730 2000 50  0000 C CNN
F 1 "0.22R" V 2650 2000 50  0000 C CNN
F 2 "" H 2650 2000 50  0001 C CNN
F 3 "" H 2650 2000 50  0001 C CNN
	1    2650 2000
	0    1    1    0   
$EndComp
$Comp
L doorctrl-v4-rescue:+24V #PWR086
U 1 1 4D04CE42
P 3050 1950
F 0 "#PWR086" H 3050 1900 20  0001 C CNN
F 1 "+24V" H 3050 2050 30  0000 C CNN
F 2 "" H 3050 1950 50  0001 C CNN
F 3 "" H 3050 1950 50  0001 C CNN
	1    3050 1950
	1    0    0    -1  
$EndComp
$Comp
L doorctrl-v4-rescue:MC34063 U2
U 1 1 4D04CE01
P 3050 2550
F 0 "U2" H 3200 2900 60  0000 L CNN
F 1 "MC34063" H 3150 2200 60  0000 L CNN
F 2 "" H 3050 2550 50  0001 C CNN
F 3 "" H 3050 2550 50  0001 C CNN
	1    3050 2550
	1    0    0    -1  
$EndComp
Wire Wire Line
	3550 5350 3550 5000
Wire Wire Line
	3050 6600 2800 6600
Wire Wire Line
	3550 6600 3300 6600
Wire Wire Line
	3900 5100 4800 5100
Wire Wire Line
	2800 6600 2550 6600
Wire Wire Line
	2550 6600 2300 6600
Wire Wire Line
	5850 3000 6050 3000
Wire Wire Line
	7300 2600 7050 2600
Wire Wire Line
	6800 2600 6550 2600
Wire Wire Line
	6050 2600 5850 2600
Wire Wire Line
	6550 3000 6800 3000
Wire Wire Line
	7050 3000 7300 3000
Wire Wire Line
	6050 3000 6300 3000
Wire Wire Line
	5850 2300 5850 2200
Wire Wire Line
	5050 2600 4950 2600
Wire Wire Line
	4250 2600 3900 2600
Wire Wire Line
	3050 2000 3050 2050
Wire Wire Line
	3900 2350 3900 1750
Wire Wire Line
	2200 2000 2200 1750
Wire Wire Line
	5350 2600 5050 2600
Wire Wire Line
	5050 3000 5350 3000
Wire Wire Line
	5350 3000 5850 3000
Wire Wire Line
	6300 3000 6550 3000
Wire Wire Line
	6800 3000 7050 3000
Wire Wire Line
	7300 3000 7550 3000
Wire Wire Line
	6300 2600 6050 2600
Wire Wire Line
	6550 2600 6300 2600
Wire Wire Line
	7050 2600 6800 2600
Wire Wire Line
	5850 2600 5350 2600
Wire Wire Line
	3900 4700 4050 4700
Wire Wire Line
	4800 4700 4650 4700
Wire Wire Line
	4800 5100 5000 5100
Wire Wire Line
	5000 5100 5150 5100
Wire Wire Line
	4950 4700 4800 4700
Wire Wire Line
	3300 6600 3050 6600
Wire Wire Line
	7550 2600 7300 2600
Wire Wire Line
	7550 3000 7800 3000
$EndSCHEMATC
