EESchema Schematic File Version 4
EELAYER 30 0
EELAYER END
$Descr A4 11693 8268
encoding utf-8
Sheet 4 6
Title ""
Date "21 mar 2011"
Rev ""
Comp ""
Comment1 ""
Comment2 ""
Comment3 ""
Comment4 ""
$EndDescr
Connection ~ 2850 6150
Connection ~ 2850 4100
Connection ~ 2850 2400
Connection ~ 10000 5450
Connection ~ 8950 5050
Connection ~ 8950 4650
Connection ~ 8950 2600
Connection ~ 8950 3000
Connection ~ 10000 3400
Connection ~ 2850 6600
Wire Wire Line
	2850 6350 2850 6450
Connection ~ 2850 4550
Wire Wire Line
	2850 4650 2850 4550
Connection ~ 2850 2850
Wire Wire Line
	2850 2950 2850 2850
Wire Wire Line
	9300 4950 9300 5050
Wire Wire Line
	9300 2900 9300 3000
Wire Wire Line
	8950 4400 8950 4650
Wire Wire Line
	9300 5050 8950 5050
Connection ~ 8950 5800
Wire Wire Line
	8950 5950 8950 5800
Wire Wire Line
	9350 5800 9500 5800
Wire Wire Line
	10000 5800 10000 5450
Wire Wire Line
	8550 5050 8250 5050
Wire Wire Line
	8250 5050 8250 4950
Wire Wire Line
	8250 4950 8050 4950
Wire Wire Line
	8550 4650 8250 4650
Wire Wire Line
	8250 4650 8250 4750
Wire Wire Line
	8250 4750 8050 4750
Wire Wire Line
	10150 3400 10000 3400
Wire Wire Line
	9500 3400 9250 3400
Connection ~ 8950 3750
Wire Wire Line
	8950 3600 8950 3750
Wire Wire Line
	8950 3200 8950 3000
Wire Wire Line
	8950 2600 9300 2600
Wire Wire Line
	8550 3000 8250 3000
Wire Wire Line
	8250 3000 8250 2900
Wire Wire Line
	8250 2900 8050 2900
Wire Wire Line
	8050 2800 8250 2800
Wire Wire Line
	5200 3400 5450 3400
Wire Wire Line
	8150 1450 8150 1600
Wire Wire Line
	8150 1600 8050 1600
Wire Wire Line
	4700 4600 4600 4600
Wire Wire Line
	4700 4000 4600 4000
Connection ~ 6000 3400
Wire Wire Line
	6000 3850 6000 3400
Connection ~ 5450 4600
Wire Wire Line
	5450 4600 5450 4500
Connection ~ 5750 3400
Wire Wire Line
	5750 3400 5750 3500
Wire Wire Line
	6250 3400 6250 3850
Connection ~ 5750 4000
Wire Wire Line
	5750 3800 5750 4000
Connection ~ 5450 4000
Connection ~ 2600 5850
Wire Wire Line
	2600 5600 2600 5850
Wire Wire Line
	2600 5600 1800 5600
Connection ~ 2850 6450
Wire Wire Line
	2000 6250 1800 6250
Wire Wire Line
	2000 5900 1800 5900
Wire Wire Line
	2850 5950 2650 5950
Wire Wire Line
	2650 5950 2650 6100
Wire Wire Line
	2650 6100 2500 6100
Wire Wire Line
	2850 5750 2700 5750
Wire Wire Line
	2750 6150 2850 6150
Wire Wire Line
	2850 4000 2850 4100
Wire Wire Line
	2850 3900 2600 3900
Wire Wire Line
	2600 3900 2600 4050
Wire Wire Line
	2600 4050 2500 4050
Wire Wire Line
	2500 3700 2850 3700
Wire Wire Line
	2000 4050 1800 4050
Wire Wire Line
	1800 3700 2000 3700
Wire Wire Line
	2000 2500 1800 2500
Wire Wire Line
	2000 2150 1800 2150
Wire Wire Line
	2850 2200 2550 2200
Wire Wire Line
	2550 2200 2550 2350
Wire Wire Line
	2550 2350 2500 2350
Wire Wire Line
	2850 2500 2500 2500
Wire Wire Line
	2750 2400 2850 2400
Connection ~ 2850 2700
Wire Wire Line
	2850 2400 2850 2300
Wire Wire Line
	2500 2000 2850 2000
Wire Wire Line
	2500 2150 2500 2100
Wire Wire Line
	2500 2100 2850 2100
Wire Wire Line
	1800 2350 2000 2350
Wire Wire Line
	2000 3850 1800 3850
Wire Wire Line
	1800 4200 2000 4200
Wire Wire Line
	2500 3850 2550 3850
Wire Wire Line
	2550 3850 2550 3800
Wire Wire Line
	2550 3800 2850 3800
Wire Wire Line
	2850 4100 2700 4100
Wire Wire Line
	2500 4200 2850 4200
Connection ~ 2850 4400
Wire Wire Line
	2850 6250 2500 6250
Wire Wire Line
	2850 6150 2850 6050
Wire Wire Line
	2600 5900 2500 5900
Wire Wire Line
	2850 5850 2600 5850
Wire Wire Line
	1800 5750 2000 5750
Wire Wire Line
	1800 6100 2000 6100
Wire Wire Line
	1800 5450 2700 5450
Wire Wire Line
	2700 5450 2700 5750
Connection ~ 2700 5750
Wire Wire Line
	5200 4000 5450 4000
Wire Wire Line
	5450 3800 5450 4000
Wire Wire Line
	6250 4150 6250 4600
Wire Wire Line
	5450 3400 5450 3500
Connection ~ 5450 3400
Wire Wire Line
	5750 4600 5750 4500
Connection ~ 5750 4600
Wire Wire Line
	6000 4150 6000 4600
Connection ~ 6000 4600
Wire Wire Line
	4600 3400 4700 3400
Wire Wire Line
	8150 1950 8150 1800
Wire Wire Line
	8150 1800 8050 1800
Wire Wire Line
	1800 2000 2000 2000
Wire Wire Line
	6250 4600 6000 4600
Wire Wire Line
	8050 2700 8250 2700
Wire Wire Line
	8250 2700 8250 2600
Wire Wire Line
	8250 2600 8550 2600
Wire Wire Line
	8950 2600 8950 2300
Wire Wire Line
	8950 3000 9300 3000
Wire Wire Line
	9350 3750 9500 3750
Wire Wire Line
	10000 3400 10000 3750
Wire Wire Line
	8050 4850 8250 4850
Wire Wire Line
	10000 5450 10150 5450
Wire Wire Line
	9500 5450 9250 5450
Wire Wire Line
	8950 5050 8950 5250
Wire Wire Line
	8950 4650 9300 4650
Wire Wire Line
	9300 2600 9300 2700
Wire Wire Line
	9300 4650 9300 4750
Text Label 8100 4850 0    60   ~ 0
k2c
Text Label 8250 5050 0    60   ~ 0
k2b
Text Label 8250 4650 0    60   ~ 0
k2a
Text Label 8100 2800 0    60   ~ 0
k1c
Text Label 8250 3000 0    60   ~ 0
k1b
Text Label 8250 2600 0    60   ~ 0
k1a
$Comp
L bc817:BC817 Q4
U 1 1 4D0FB782
P 9050 5450
F 0 "Q4" H 9050 5300 50  0000 R CNN
F 1 "BC817" H 9050 5600 50  0000 R CNN
F 2 "" H 9050 5450 50  0001 C CNN
F 3 "" H 9050 5450 50  0001 C CNN
	1    9050 5450
	-1   0    0    -1  
$EndComp
$Comp
L bc817:BC817 Q3
U 1 1 4D0FB771
P 9050 3400
F 0 "Q3" H 9050 3250 50  0000 R CNN
F 1 "BC817" H 9050 3550 50  0000 R CNN
F 2 "" H 9050 3400 50  0001 C CNN
F 3 "" H 9050 3400 50  0001 C CNN
	1    9050 3400
	-1   0    0    -1  
$EndComp
$Comp
L diode:DIODE-MINIMELF D11
U 1 1 4D0FB50F
P 9300 4850
F 0 "D11" H 9400 4869 50  0000 L BNN
F 1 "LS 914B" H 9400 4759 50  0000 L BNN
F 2 "diode-MINIMELF" H 9300 5000 50  0001 C CNN
F 3 "" H 9300 4850 50  0001 C CNN
	1    9300 4850
	0    -1   -1   0   
$EndComp
$Comp
L diode:DIODE-MINIMELF D10
U 1 1 4D0FB4EA
P 9300 2800
F 0 "D10" H 9400 2819 50  0000 L BNN
F 1 "LS 914B" H 9400 2709 50  0000 L BNN
F 2 "diode-MINIMELF" H 9300 2950 50  0001 C CNN
F 3 "" H 9300 2800 50  0001 C CNN
	1    9300 2800
	0    -1   -1   0   
$EndComp
Text Notes 1550 6950 0    60   ~ 0
R22 and R23 must NOT be mounted along with the on-board RFID reader.
Text HLabel 10150 5450 2    60   Input ~ 0
Relay2
$Comp
L doorctrl-v4-rescue:GND #PWR048
U 1 1 4D07A06D
P 8950 5950
F 0 "#PWR048" H 8950 5950 30  0001 C CNN
F 1 "GND" H 8950 5880 30  0001 C CNN
F 2 "" H 8950 5950 50  0001 C CNN
F 3 "" H 8950 5950 50  0001 C CNN
	1    8950 5950
	1    0    0    -1  
$EndComp
$Comp
L doorctrl-v4-rescue:LED D5
U 1 1 4D07A05F
P 9150 5800
F 0 "D5" H 9150 5900 50  0000 C CNN
F 1 "LED" H 9150 5700 50  0000 C CNN
F 2 "" H 9150 5800 50  0001 C CNN
F 3 "" H 9150 5800 50  0001 C CNN
	1    9150 5800
	-1   0    0    1   
$EndComp
$Comp
L doorctrl-v4-rescue:R R39
U 1 1 4D07A054
P 9750 5800
F 0 "R39" V 9830 5800 50  0000 C CNN
F 1 "470R" V 9750 5800 50  0000 C CNN
F 2 "" H 9750 5800 50  0001 C CNN
F 3 "" H 9750 5800 50  0001 C CNN
	1    9750 5800
	0    1    1    0   
$EndComp
$Comp
L doorctrl-v4-rescue:R R38
U 1 1 4D07A04A
P 9750 5450
F 0 "R38" V 9830 5450 50  0000 C CNN
F 1 "4k7" V 9750 5450 50  0000 C CNN
F 2 "" H 9750 5450 50  0001 C CNN
F 3 "" H 9750 5450 50  0001 C CNN
	1    9750 5450
	0    1    1    0   
$EndComp
$Comp
L doorctrl-v4-rescue:+12V #PWR049
U 1 1 4D07A02C
P 8950 4400
AR Path="/4D07A02C" Ref="#PWR049"  Part="1" 
AR Path="/4CFD3197/4D07A02C" Ref="#PWR049"  Part="1" 
F 0 "#PWR049" H 8950 4350 20  0001 C CNN
F 1 "+12V" H 8950 4500 30  0000 C CNN
F 2 "" H 8950 4400 50  0001 C CNN
F 3 "" H 8950 4400 50  0001 C CNN
	1    8950 4400
	1    0    0    -1  
$EndComp
$Comp
L borniers:CONN_3_V CON13
U 1 1 4D079FD5
P 7700 4850
F 0 "CON13" H 7600 5100 50  0000 C CNN
F 1 "CONN_3_V" H 7700 5040 40  0000 C CNN
F 2 "" H 7700 4850 50  0001 C CNN
F 3 "" H 7700 4850 50  0001 C CNN
	1    7700 4850
	-1   0    0    -1  
$EndComp
$Comp
L g5sb:G5SB K2
U 2 1 4D079FBB
P 8350 4850
F 0 "K2" H 8400 5150 50  0000 L BNN
F 1 "G5SB" H 8400 4950 50  0001 L BNN
F 2 "g5sb" H 8300 5050 60  0001 C CNN
F 3 "" H 8350 4850 50  0001 C CNN
	2    8350 4850
	0    1    1    0   
$EndComp
$Comp
L g5sb:G5SB K2
U 1 1 4D079FB3
P 8950 4850
F 0 "K2" H 9000 5150 50  0000 L BNN
F 1 "G5SB" H 9000 4950 50  0001 L BNN
F 2 "g5sb" H 8900 5050 60  0001 C CNN
F 3 "" H 8950 4850 50  0001 C CNN
	1    8950 4850
	1    0    0    -1  
$EndComp
Text HLabel 10150 3400 2    60   Input ~ 0
Relay1
$Comp
L borniers:CONN_3_V CON12
U 1 1 4D079D9B
P 7700 2800
F 0 "CON12" H 7600 3050 50  0000 C CNN
F 1 "CONN_3_V" H 7700 2990 40  0000 C CNN
F 2 "" H 7700 2800 50  0001 C CNN
F 3 "" H 7700 2800 50  0001 C CNN
	1    7700 2800
	-1   0    0    -1  
$EndComp
$Comp
L doorctrl-v4-rescue:+12V #PWR050
U 1 1 4D079D91
P 8950 2300
AR Path="/4D079D91" Ref="#PWR050"  Part="1" 
AR Path="/4CFD3197/4D079D91" Ref="#PWR050"  Part="1" 
F 0 "#PWR050" H 8950 2250 20  0001 C CNN
F 1 "+12V" H 8950 2400 30  0000 C CNN
F 2 "" H 8950 2300 50  0001 C CNN
F 3 "" H 8950 2300 50  0001 C CNN
	1    8950 2300
	1    0    0    -1  
$EndComp
$Comp
L doorctrl-v4-rescue:GND #PWR051
U 1 1 4D079B9C
P 8950 3900
F 0 "#PWR051" H 8950 3900 30  0001 C CNN
F 1 "GND" H 8950 3830 30  0001 C CNN
F 2 "" H 8950 3900 50  0001 C CNN
F 3 "" H 8950 3900 50  0001 C CNN
	1    8950 3900
	1    0    0    -1  
$EndComp
$Comp
L doorctrl-v4-rescue:LED D4
U 1 1 4D079B8E
P 9150 3750
F 0 "D4" H 9150 3850 50  0000 C CNN
F 1 "LED" H 9150 3650 50  0000 C CNN
F 2 "" H 9150 3750 50  0001 C CNN
F 3 "" H 9150 3750 50  0001 C CNN
	1    9150 3750
	-1   0    0    1   
$EndComp
$Comp
L doorctrl-v4-rescue:R R37
U 1 1 4D079B84
P 9750 3750
F 0 "R37" V 9830 3750 50  0000 C CNN
F 1 "470R" V 9750 3750 50  0000 C CNN
F 2 "" H 9750 3750 50  0001 C CNN
F 3 "" H 9750 3750 50  0001 C CNN
	1    9750 3750
	0    1    1    0   
$EndComp
$Comp
L doorctrl-v4-rescue:R R36
U 1 1 4D079B7E
P 9750 3400
F 0 "R36" V 9830 3400 50  0000 C CNN
F 1 "4k7" V 9750 3400 50  0000 C CNN
F 2 "" H 9750 3400 50  0001 C CNN
F 3 "" H 9750 3400 50  0001 C CNN
	1    9750 3400
	0    1    1    0   
$EndComp
$Comp
L g5sb:G5SB K1
U 2 1 4D068151
P 8350 2800
F 0 "K1" H 8400 3100 50  0000 L BNN
F 1 "G5SB" H 8400 2900 50  0000 L BNN
F 2 "" H 8350 2800 50  0001 C CNN
F 3 "" H 8350 2800 50  0001 C CNN
	2    8350 2800
	0    1    1    0   
$EndComp
$Comp
L g5sb:G5SB K1
U 1 1 4D06814D
P 8950 2800
F 0 "K1" H 9000 3100 50  0000 L BNN
F 1 "G5SB" H 9000 2900 50  0000 L BNN
F 2 "" H 8950 2800 50  0001 C CNN
F 3 "" H 8950 2800 50  0001 C CNN
	1    8950 2800
	1    0    0    -1  
$EndComp
$Comp
L doorctrl-v4-rescue:GND #PWR052
U 1 1 4D04DDDA
P 8150 1950
F 0 "#PWR052" H 8150 1950 30  0001 C CNN
F 1 "GND" H 8150 1880 30  0001 C CNN
F 2 "" H 8150 1950 50  0001 C CNN
F 3 "" H 8150 1950 50  0001 C CNN
	1    8150 1950
	1    0    0    -1  
$EndComp
$Comp
L doorctrl-v4-rescue:+12V #PWR053
U 1 1 4D04DDD3
P 8150 1450
AR Path="/4D04DDD3" Ref="#PWR053"  Part="1" 
AR Path="/4CFD3197/4D04DDD3" Ref="#PWR053"  Part="1" 
F 0 "#PWR053" H 8150 1400 20  0001 C CNN
F 1 "+12V" H 8150 1550 30  0000 C CNN
F 2 "" H 8150 1450 50  0001 C CNN
F 3 "" H 8150 1450 50  0001 C CNN
	1    8150 1450
	1    0    0    -1  
$EndComp
$Comp
L borniers:CONN_2_V CON11
U 1 1 4D04DDC0
P 7700 1700
F 0 "CON11" H 7620 1925 40  0000 C CNN
F 1 "CONN_2_V" H 7670 1880 40  0000 C CNN
F 2 "" H 7700 1700 50  0001 C CNN
F 3 "" H 7700 1700 50  0001 C CNN
	1    7700 1700
	-1   0    0    1   
$EndComp
Text HLabel 4600 4600 0    60   Input ~ 0
LED-3
Text HLabel 4600 4000 0    60   Input ~ 0
LED-2
Text HLabel 4600 3400 0    60   Input ~ 0
LED-1
$Comp
L doorctrl-v4-rescue:R R35
U 1 1 4D04C0ED
P 4950 4600
F 0 "R35" V 5030 4600 50  0000 C CNN
F 1 "330R" V 4950 4600 50  0000 C CNN
F 2 "" H 4950 4600 50  0001 C CNN
F 3 "" H 4950 4600 50  0001 C CNN
	1    4950 4600
	0    1    1    0   
$EndComp
$Comp
L doorctrl-v4-rescue:R R34
U 1 1 4D04C0E0
P 4950 4000
F 0 "R34" V 5030 4000 50  0000 C CNN
F 1 "330R" V 4950 4000 50  0000 C CNN
F 2 "" H 4950 4000 50  0001 C CNN
F 3 "" H 4950 4000 50  0001 C CNN
	1    4950 4000
	0    1    1    0   
$EndComp
$Comp
L doorctrl-v4-rescue:R R33
U 1 1 4D04C0D1
P 4950 3400
F 0 "R33" V 5030 3400 50  0000 C CNN
F 1 "330R" V 4950 3400 50  0000 C CNN
F 2 "" H 4950 3400 50  0001 C CNN
F 3 "" H 4950 3400 50  0001 C CNN
	1    4950 3400
	0    1    1    0   
$EndComp
$Comp
L amp-rj45-tap-up-with-leds:RJHSE-5085 CON4
U 2 1 4D04A957
P 5750 4400
F 0 "CON4" H 5700 4700 60  0000 C CNN
F 1 "RJHSE-5085" H 6350 4800 60  0000 C CNN
F 2 "" H 5750 4400 50  0001 C CNN
F 3 "" H 5750 4400 50  0001 C CNN
	2    5750 4400
	-1   0    0    1   
$EndComp
$Comp
L amp-rj45-tap-up-with-leds:RJHSE-5085 CON4
U 3 1 4D04AB2F
P 5450 4300
F 0 "CON4" H 5400 3900 60  0000 C CNN
F 1 "RJHSE-5085" H 5150 3800 60  0000 C CNN
F 2 "" H 5450 4300 50  0001 C CNN
F 3 "" H 5450 4300 50  0001 C CNN
	3    5450 4300
	1    0    0    -1  
$EndComp
Text HLabel 1800 5600 0    60   BiDi ~ 0
port3-2d
Text HLabel 1800 5450 0    60   BiDi ~ 0
port3-1d
$Comp
L doorctrl-v4-rescue:GND #PWR054
U 1 1 4D04BA37
P 2850 6700
F 0 "#PWR054" H 2850 6700 30  0001 C CNN
F 1 "GND" H 2850 6630 30  0001 C CNN
F 2 "" H 2850 6700 50  0001 C CNN
F 3 "" H 2850 6700 50  0001 C CNN
	1    2850 6700
	1    0    0    -1  
$EndComp
Text HLabel 1800 6250 0    60   Input ~ 0
port3-6
Text HLabel 1800 6100 0    60   Input ~ 0
port3-3
Text HLabel 1800 5900 0    60   Input ~ 0
port3-2
Text HLabel 1800 5750 0    60   Input ~ 0
port3-1
$Comp
L doorctrl-v4-rescue:+12V #PWR055
U 1 1 4D04B962
P 2750 6150
AR Path="/4D04B962" Ref="#PWR055"  Part="1" 
AR Path="/4CFD3197/4D04B962" Ref="#PWR055"  Part="1" 
F 0 "#PWR055" H 2750 6100 20  0001 C CNN
F 1 "+12V" H 2750 6250 30  0000 C CNN
F 2 "" H 2750 6150 50  0001 C CNN
F 3 "" H 2750 6150 50  0001 C CNN
	1    2750 6150
	1    0    0    -1  
$EndComp
$Comp
L doorctrl-v4-rescue:R R25
U 1 1 4D04B94E
P 2250 6250
F 0 "R25" V 2330 6250 50  0000 C CNN
F 1 "1k" V 2250 6250 50  0000 C CNN
F 2 "" H 2250 6250 50  0001 C CNN
F 3 "" H 2250 6250 50  0001 C CNN
	1    2250 6250
	0    1    1    0   
$EndComp
$Comp
L doorctrl-v4-rescue:R R24
U 1 1 4D04B94A
P 2250 6100
F 0 "R24" V 2330 6100 50  0000 C CNN
F 1 "1k" V 2250 6100 50  0000 C CNN
F 2 "" H 2250 6100 50  0001 C CNN
F 3 "" H 2250 6100 50  0001 C CNN
	1    2250 6100
	0    1    1    0   
$EndComp
$Comp
L doorctrl-v4-rescue:R R23
U 1 1 4D04B93E
P 2250 5900
F 0 "R23" V 2330 5900 50  0000 C CNN
F 1 "1k" V 2250 5900 50  0000 C CNN
F 2 "" H 2250 5900 50  0001 C CNN
F 3 "" H 2250 5900 50  0001 C CNN
	1    2250 5900
	0    1    1    0   
$EndComp
$Comp
L doorctrl-v4-rescue:R R22
U 1 1 4D04B937
P 2250 5750
F 0 "R22" V 2330 5750 50  0000 C CNN
F 1 "1k" V 2250 5750 50  0000 C CNN
F 2 "" H 2250 5750 50  0001 C CNN
F 3 "" H 2250 5750 50  0001 C CNN
	1    2250 5750
	0    1    1    0   
$EndComp
$Comp
L amp-rj45-tap-up-with-leds:RJHSE-5085 CON5
U 3 1 4D04AB2B
P 6000 3950
F 0 "CON5" V 6100 4150 60  0000 C CNN
F 1 "RJHSE-5085" H 5150 3100 60  0000 C CNN
F 2 "" H 6000 3950 50  0001 C CNN
F 3 "" H 6000 3950 50  0001 C CNN
	3    6000 3950
	1    0    0    -1  
$EndComp
$Comp
L amp-rj45-tap-up-with-leds:RJHSE-5085 CON5
U 1 1 4D04AB28
P 3050 6050
F 0 "CON5" H 3300 6350 60  0000 C CNN
F 1 "RJHSE-5085" H 3150 6450 60  0000 C CNN
F 2 "" H 3050 6050 50  0001 C CNN
F 3 "" H 3050 6050 50  0001 C CNN
	1    3050 6050
	1    0    0    -1  
$EndComp
Text HLabel 1800 4200 0    60   Input ~ 0
port2-6
Text HLabel 1800 4050 0    60   Input ~ 0
port2-3
Text HLabel 1800 3850 0    60   Input ~ 0
port2-2
Text HLabel 1800 3700 0    60   Input ~ 0
port2-1
$Comp
L doorctrl-v4-rescue:R R19
U 1 1 4D04AA24
P 2250 4200
F 0 "R19" V 2330 4200 50  0000 C CNN
F 1 "1k" V 2250 4200 50  0000 C CNN
F 2 "" H 2250 4200 50  0001 C CNN
F 3 "" H 2250 4200 50  0001 C CNN
	1    2250 4200
	0    1    1    0   
$EndComp
$Comp
L doorctrl-v4-rescue:R R18
U 1 1 4D04AA1D
P 2250 4050
F 0 "R18" V 2330 4050 50  0000 C CNN
F 1 "1k" V 2250 4050 50  0000 C CNN
F 2 "" H 2250 4050 50  0001 C CNN
F 3 "" H 2250 4050 50  0001 C CNN
	1    2250 4050
	0    1    1    0   
$EndComp
$Comp
L doorctrl-v4-rescue:R R17
U 1 1 4D04AA15
P 2250 3850
F 0 "R17" V 2330 3850 50  0000 C CNN
F 1 "1k" V 2250 3850 50  0000 C CNN
F 2 "" H 2250 3850 50  0001 C CNN
F 3 "" H 2250 3850 50  0001 C CNN
	1    2250 3850
	0    1    1    0   
$EndComp
$Comp
L doorctrl-v4-rescue:R R16
U 1 1 4D04A9EE
P 2250 3700
F 0 "R16" V 2330 3700 50  0000 C CNN
F 1 "1k" V 2250 3700 50  0000 C CNN
F 2 "" H 2250 3700 50  0001 C CNN
F 3 "" H 2250 3700 50  0001 C CNN
	1    2250 3700
	0    1    1    0   
$EndComp
$Comp
L doorctrl-v4-rescue:+12V #PWR056
U 1 1 4D04A9E3
P 2700 4100
AR Path="/4D04A9E3" Ref="#PWR056"  Part="1" 
AR Path="/4CFD3197/4D04A9E3" Ref="#PWR056"  Part="1" 
F 0 "#PWR056" H 2700 4050 20  0001 C CNN
F 1 "+12V" H 2700 4200 30  0000 C CNN
F 2 "" H 2700 4100 50  0001 C CNN
F 3 "" H 2700 4100 50  0001 C CNN
	1    2700 4100
	1    0    0    -1  
$EndComp
$Comp
L doorctrl-v4-rescue:GND #PWR057
U 1 1 4D04A9DA
P 2850 4650
F 0 "#PWR057" H 2850 4650 30  0001 C CNN
F 1 "GND" H 2850 4580 30  0001 C CNN
F 2 "" H 2850 4650 50  0001 C CNN
F 3 "" H 2850 4650 50  0001 C CNN
	1    2850 4650
	1    0    0    -1  
$EndComp
$Comp
L amp-rj45-tap-up-with-leds:RJHSE-5085 CON5
U 2 1 4D04A95A
P 6250 4050
F 0 "CON5" V 6150 3750 60  0000 C CNN
F 1 "RJHSE-5085" H 7350 4800 60  0000 C CNN
F 2 "" H 6250 4050 50  0001 C CNN
F 3 "" H 6250 4050 50  0001 C CNN
	2    6250 4050
	-1   0    0    1   
$EndComp
$Comp
L amp-rj45-tap-up-with-leds:RJHSE-5085 CON4
U 1 1 4D04A953
P 3050 4000
F 0 "CON4" H 3300 4300 60  0000 C CNN
F 1 "RJHSE-5085" H 3150 4400 60  0000 C CNN
F 2 "" H 3050 4000 50  0001 C CNN
F 3 "" H 3050 4000 50  0001 C CNN
	1    3050 4000
	1    0    0    -1  
$EndComp
Text HLabel 1800 2500 0    60   Input ~ 0
port1-6
Text HLabel 1800 2350 0    60   Input ~ 0
port1-3
Text HLabel 1800 2150 0    60   Input ~ 0
port1-2
Text HLabel 1800 2000 0    60   Input ~ 0
port1-1
$Comp
L doorctrl-v4-rescue:R R13
U 1 1 4D04A655
P 2250 2500
F 0 "R13" V 2330 2500 50  0000 C CNN
F 1 "1k" V 2250 2500 50  0000 C CNN
F 2 "" H 2250 2500 50  0001 C CNN
F 3 "" H 2250 2500 50  0001 C CNN
	1    2250 2500
	0    1    1    0   
$EndComp
$Comp
L doorctrl-v4-rescue:R R12
U 1 1 4D04A64D
P 2250 2350
F 0 "R12" V 2330 2350 50  0000 C CNN
F 1 "1k" V 2250 2350 50  0000 C CNN
F 2 "" H 2250 2350 50  0001 C CNN
F 3 "" H 2250 2350 50  0001 C CNN
	1    2250 2350
	0    1    1    0   
$EndComp
$Comp
L doorctrl-v4-rescue:R R11
U 1 1 4D04A642
P 2250 2150
F 0 "R11" V 2330 2150 50  0000 C CNN
F 1 "1k" V 2250 2150 50  0000 C CNN
F 2 "" H 2250 2150 50  0001 C CNN
F 3 "" H 2250 2150 50  0001 C CNN
	1    2250 2150
	0    1    1    0   
$EndComp
$Comp
L doorctrl-v4-rescue:R R10
U 1 1 4D04A63A
P 2250 2000
F 0 "R10" V 2330 2000 50  0000 C CNN
F 1 "1k" V 2250 2000 50  0000 C CNN
F 2 "" H 2250 2000 50  0001 C CNN
F 3 "" H 2250 2000 50  0001 C CNN
	1    2250 2000
	0    1    1    0   
$EndComp
$Comp
L doorctrl-v4-rescue:+12V #PWR058
U 1 1 4D04A4F5
P 2750 2400
AR Path="/4D04A4F5" Ref="#PWR058"  Part="1" 
AR Path="/4CFD3197/4D04A4F5" Ref="#PWR058"  Part="1" 
F 0 "#PWR058" H 2750 2350 20  0001 C CNN
F 1 "+12V" H 2750 2500 30  0000 C CNN
F 2 "" H 2750 2400 50  0001 C CNN
F 3 "" H 2750 2400 50  0001 C CNN
	1    2750 2400
	1    0    0    -1  
$EndComp
$Comp
L doorctrl-v4-rescue:GND #PWR059
U 1 1 4D04A4D9
P 2850 2950
F 0 "#PWR059" H 2850 2950 30  0001 C CNN
F 1 "GND" H 2850 2880 30  0001 C CNN
F 2 "" H 2850 2950 50  0001 C CNN
F 3 "" H 2850 2950 50  0001 C CNN
	1    2850 2950
	1    0    0    -1  
$EndComp
$Comp
L amp-rj45-tap-up-with-leds:RJHSE-5085 CON3
U 3 1 4D04A396
P 5450 3600
F 0 "CON3" H 5400 3850 60  0000 C CNN
F 1 "RJHSE-5085" H 5150 2400 60  0000 C CNN
F 2 "" H 5450 3600 50  0001 C CNN
F 3 "" H 5450 3600 50  0001 C CNN
	3    5450 3600
	1    0    0    -1  
$EndComp
$Comp
L amp-rj45-tap-up-with-leds:RJHSE-5085 CON3
U 2 1 4D04A392
P 5750 3700
F 0 "CON3" H 5700 3350 60  0000 C CNN
F 1 "RJHSE-5085" H 6350 4800 60  0000 C CNN
F 2 "" H 5750 3700 50  0001 C CNN
F 3 "" H 5750 3700 50  0001 C CNN
	2    5750 3700
	-1   0    0    1   
$EndComp
$Comp
L amp-rj45-tap-up-with-leds:RJHSE-5085 CON3
U 1 1 4D04A38A
P 3050 2300
F 0 "CON3" H 3300 2600 60  0000 C CNN
F 1 "RJHSE-5085" H 3150 2700 60  0000 C CNN
F 2 "" H 3050 2300 50  0001 C CNN
F 3 "" H 3050 2300 50  0001 C CNN
	1    3050 2300
	1    0    0    -1  
$EndComp
Wire Wire Line
	2850 6600 2850 6700
Wire Wire Line
	2850 4550 2850 4400
Wire Wire Line
	2850 2850 2850 2700
Wire Wire Line
	8950 5800 8950 5650
Wire Wire Line
	8950 3750 8950 3900
Wire Wire Line
	6000 3400 6250 3400
Wire Wire Line
	5450 4600 5200 4600
Wire Wire Line
	5750 3400 6000 3400
Wire Wire Line
	5750 4000 5750 4200
Wire Wire Line
	5450 4000 5750 4000
Wire Wire Line
	5450 4000 5450 4200
Wire Wire Line
	2600 5850 2600 5900
Wire Wire Line
	2850 6450 2850 6600
Wire Wire Line
	2850 2700 2850 2600
Wire Wire Line
	2850 4400 2850 4300
Wire Wire Line
	2700 5750 2500 5750
Wire Wire Line
	5450 3400 5750 3400
Wire Wire Line
	5750 4600 5450 4600
Wire Wire Line
	6000 4600 5750 4600
$EndSCHEMATC
